calculadora4bits/calculadora/simulation/qsim/calculadora.msim.vcd
$comment
	File created using the following command:
		vcd file calculadora.msim.vcd -direction
$end
$date
	Tue Apr 09 22:17:59 2019
$end
$version
	ModelSim Version 10.1d
$end
$timescale
	1ps
$end
$scope module display7seg_vlg_vec_tst $end
$var reg 4 ! xseg [3:0] $end
$var wire 1 " aseg $end
$var wire 1 # bseg $end
$var wire 1 $ cseg $end
$var wire 1 % dseg $end
$var wire 1 & eseg $end
$var wire 1 ' fseg $end
$var wire 1 ( gseg $end
$var wire 1 ) sampler $end
$scope module i1 $end
$var wire 1 * gnd $end
$var wire 1 + vcc $end
$var wire 1 , unknown $end
$var tri1 1 - devclrn $end
$var tri1 1 . devpor $end
$var tri1 1 / devoe $end
$var wire 1 0 aseg~0_combout $end
$var wire 1 1 bseg~0_combout $end
$var wire 1 2 cseg~0_combout $end
$var wire 1 3 dseg~0_combout $end
$var wire 1 4 eseg~0_combout $end
$var wire 1 5 fseg~0_combout $end
$var wire 1 6 gseg~0_combout $end
$var wire 1 7 xseg~combout [3] $end
$var wire 1 8 xseg~combout [2] $end
$var wire 1 9 xseg~combout [1] $end
$var wire 1 : xseg~combout [0] $end
$upscope $end
$upscope $end
$enddefinitions $end
#0
$dumpvars
b1 !
1"
0#
0$
1%
1&
1'
1(
x)
0*
1+
x,
1-
1.
1/
10
01
02
13
14
15
16
1:
09
08
07
$end
#50000
b11 !
b10 !
0:
19
0)
06
04
03
12
00
0(
0&
0%
1$
0"
#100000
b11 !
1:
1)
14
02
1&
0$
#150000
b111 !
b101 !
b100 !
0:
09
18
0)
05
13
10
0'
1%
1"
#200000
b101 !
1:
1)
03
11
00
0%
1#
0"
#250000
b111 !
b110 !
0:
19
0)
04
0&
#300000
b111 !
1:
1)
16
15
14
13
01
1(
1'
1&
1%
0#
#350000
b1111 !
b1011 !
b1001 !
b1000 !
0:
09
08
17
0)
06
05
04
03
0(
0'
0&
0%
#400000
b1001 !
1:
1)
14
1&
#450000
b1011 !
b1010 !
0:
19
0)
04
13
0&
1%
#500000
b1011 !
1:
1)
03
11
10
0%
1#
1"
#550000
b1111 !
b1101 !
b1100 !
0:
09
18
0)
16
12
00
1(
1$
0"
#600000
b1101 !
1:
1)
06
15
02
01
10
0(
1'
0$
0#
1"
#650000
b1111 !
b1110 !
0:
19
0)
05
12
11
00
0'
1$
1#
0"
#700000
b1111 !
1:
1)
13
1%
#750000
b111 !
b11 !
b1 !
b0 !
0:
09
08
07
0)
16
03
02
01
1(
0%
0$
0#
