calculadora4bits/calculadora/simulation/qsim/calculadora.msim.vcd
$comment
	File created using the following command:
		vcd file calculadora.msim.vcd -direction
$end
$date
	Tue Apr 09 23:11:27 2019
$end
$version
	ModelSim Version 10.1d
$end
$timescale
	1ps
$end
$scope module calculadora_vlg_vec_tst $end
$var reg 1 ! btnLigar $end
$var reg 3 " chave [2:0] $end
$var reg 4 # x1 [3:0] $end
$var reg 4 $ x2 [3:0] $end
$var wire 1 % c0 $end
$var wire 1 & ctrl [1] $end
$var wire 1 ' ctrl [0] $end
$var wire 1 ( saidaDisplay [6] $end
$var wire 1 ) saidaDisplay [5] $end
$var wire 1 * saidaDisplay [4] $end
$var wire 1 + saidaDisplay [3] $end
$var wire 1 , saidaDisplay [2] $end
$var wire 1 - saidaDisplay [1] $end
$var wire 1 . saidaDisplay [0] $end
$var wire 1 / sampler $end
$scope module i1 $end
$var wire 1 0 gnd $end
$var wire 1 1 vcc $end
$var wire 1 2 unknown $end
$var tri1 1 3 devclrn $end
$var tri1 1 4 devpor $end
$var tri1 1 5 devoe $end
$var wire 1 6 instanciaSomador|gen:1:uut|cout~0_combout $end
$var wire 1 7 instanciaMaiorQue|y~0_combout $end
$var wire 1 8 c0~4_combout $end
$var wire 1 9 c0~5_combout $end
$var wire 1 : c0~6_combout $end
$var wire 1 ; multiplexador|gen:2:uut|saida~6_combout $end
$var wire 1 < multiplexador|gen:1:uut|saida~0_combout $end
$var wire 1 = c0~1_combout $end
$var wire 1 > instanciaSomador|gen:2:uut|cout~0_combout $end
$var wire 1 ? multiplexador|gen:3:uut|saida~1_combout $end
$var wire 1 @ c0~0_combout $end
$var wire 1 A instanciaSubtrator|gen:1:uut|c_out~0_combout $end
$var wire 1 B instanciaSubtrator|gen:2:uut|c_out~0_combout $end
$var wire 1 C multiplexador|gen:3:uut|saida~0_combout $end
$var wire 1 D multiplexador|gen:3:uut|saida~2_combout $end
$var wire 1 E multiplexador|gen:0:uut|saida~0_combout $end
$var wire 1 F multiplexador|gen:0:uut|saida~1_combout $end
$var wire 1 G multiplexador|gen:1:uut|saida~2_combout $end
$var wire 1 H multiplexador|gen:1:uut|saida~3_combout $end
$var wire 1 I multiplexador|gen:1:uut|saida~1_combout $end
$var wire 1 J multiplexador|gen:2:uut|saida~5_combout $end
$var wire 1 K multiplexador|gen:2:uut|saida~4_combout $end
$var wire 1 L display7segmento|aseg~0_combout $end
$var wire 1 M display7segmento|bseg~0_combout $end
$var wire 1 N display7segmento|cseg~0_combout $end
$var wire 1 O display7segmento|dseg~0_combout $end
$var wire 1 P display7segmento|eseg~0_combout $end
$var wire 1 Q display7segmento|fseg~0_combout $end
$var wire 1 R display7segmento|gseg~0_combout $end
$var wire 1 S btnLigar~combout $end
$var wire 1 T ctrl~0_combout $end
$var wire 1 U c0~9_combout $end
$var wire 1 V c0~8_combout $end
$var wire 1 W c0~7_combout $end
$var wire 1 X c0~10_combout $end
$var wire 1 Y ctrl~1_combout $end
$var wire 1 Z c0~2_combout $end
$var wire 1 [ c0~3_combout $end
$var wire 1 \ c0~11_combout $end
$var wire 1 ] c0~13_combout $end
$var wire 1 ^ c0~12_combout $end
$var wire 1 _ c0~14_combout $end
$var wire 1 ` x2~combout [3] $end
$var wire 1 a x2~combout [2] $end
$var wire 1 b x2~combout [1] $end
$var wire 1 c x2~combout [0] $end
$var wire 1 d chave~combout [2] $end
$var wire 1 e chave~combout [1] $end
$var wire 1 f chave~combout [0] $end
$var wire 1 g x1~combout [3] $end
$var wire 1 h x1~combout [2] $end
$var wire 1 i x1~combout [1] $end
$var wire 1 j x1~combout [0] $end
$upscope $end
$upscope $end
$enddefinitions $end
#0
$dumpvars
1!
b0 "
b1000 #
b1000 $
0?
1@
0A
0B
0C
0D
0E
0F
0G
0H
0I
0J
0K
0L
0M
0N
0O
0P
0Q
1R
1S
0T
0U
0V
0W
0X
0Y
0Z
0[
0\
0]
0^
0_
0c
0b
0a
1`
0f
0e
0d
0j
0i
0h
1g
0%
0'
0&
0.
0-
0,
0+
0*
0)
1(
x/
00
11
x2
13
14
15
06
07
08
09
0:
0;
0<
0=
0>
$end
#100000
b1001 $
1c
0/
1U
1H
1E
1A
1I
1F
1B
1;
0R
1Q
1P
1^
1C
1K
1_
1D
1R
1O
0(
1)
1*
0R
0Q
0P
1N
1M
1%
1(
1+
0(
0)
0*
1,
1-
#140000
b1000 $
0c
1/
0U
0H
0E
0A
0I
0F
0B
0;
1R
0O
0^
0C
0K
0_
0D
0R
0N
0M
1(
0+
1R
0%
0(
0,
0-
1(
#150000
b0 #
b10 #
b1 "
1f
1i
0g
0/
0@
1=
1G
19
1^
1W
1C
0^
1H
0C
1?
1_
1X
1D
0_
1I
0R
1%
1O
0%
0(
1+
#180000
0!
0S
1/
1T
1'
#220000
b1100 $
b1110 $
b1111 $
1c
1b
1a
0/
1U
0G
1E
1A
09
16
1J
1B
17
0H
1F
0J
1>
1K
0I
1N
1M
0K
1]
0?
1P
0O
0N
0M
0D
1,
1-
1R
1Q
1O
1L
1*
0+
0,
0-
1(
1)
1+
1.
#260000
1!
1S
1/
1_
0T
1%
0'
#300000
b110 #
b11 "
b100 #
b10 "
0f
1e
0i
1h
0/
0X
0=
1Y
1T
0E
1V
0U
1G
06
1J
07
0]
0J
0F
1K
1'
0_
0K
0R
0Q
1R
0P
0O
0L
0%
0(
0)
1(
0*
0+
0.
#400000
b111 $
b11 $
b1 $
b0 $
0c
0b
0a
0`
1/
0G
0A
0V
0W
0B
0>
18
17
1:
1\
1_
1%
#450000
b101 #
b1101 #
b1111 #
b11 "
1f
1j
1i
1g
0/
0:
1G
19
0\
0_
0%
#530000
b1011 #
b1000 $
b1010 $
b1011 $
b1010 #
1c
1b
1`
0j
0h
1/
1U
0G
1A
09
16
08
07
1X
1B
1\
1_
1%
#600000
b111 "
b101 "
b1111 $
b100 "
b1110 #
1h
1a
0f
0e
1d
0/
1>
0X
1<
0Y
0T
0\
1F
0'
0_
1Q
1P
1O
1L
0%
1)
1*
1+
1.
#750000
b1111 #
b0 "
0d
1j
1/
1@
0<
0U
1G
0F
0A
1^
1C
0Q
0P
0O
0L
0B
1_
1D
0^
0C
0)
0*
0+
0.
0R
0_
0D
1%
1R
0(
0%
1(
#800000
b111 $
b101 $
b100 $
b0 $
0c
0b
0a
0`
0/
1H
1E
19
06
1;
18
17
1C
1I
1F
1:
0>
1K
1D
0R
1O
1N
1M
0(
1+
1,
1-
#900000
b111 #
b101 #
b1 #
b0 #
0j
0i
0h
0g
1/
0G
0E
09
0;
08
07
1Z
0C
0H
0F
0:
0K
0D
0I
1Q
0O
0M
1R
0Q
0N
1)
0+
0-
1(
0)
0,
